<?xml version="1.0" encoding="UTF-8"?>
<testng-results skipped="0" failed="0" ignored="0" total="1" passed="1">
  <reporter-output>
  </reporter-output>
  <suite name="Suite" duration-ms="70" started-at="2019-06-14T12:34:21Z" finished-at="2019-06-14T12:34:21Z">
    <groups>
    </groups>
    <test name="Test" duration-ms="70" started-at="2019-06-14T12:34:21Z" finished-at="2019-06-14T12:34:21Z">
      <class name="com.rapid.gitlabdev.AppTest">
        <test-method status="PASS" signature="devTestCase()[pri:0, instance:com.rapid.gitlabdev.AppTest@6adca536]" name="devTestCase" duration-ms="24" started-at="2019-06-14T18:04:21Z" finished-at="2019-06-14T18:04:21Z">
          <reporter-output>
          </reporter-output>
        </test-method> <!-- devTestCase -->
      </class> <!-- com.rapid.gitlabdev.AppTest -->
    </test> <!-- Test -->
  </suite> <!-- Suite -->
</testng-results>
